dat/prewitt-lena.vcd
$date
	Wed Jul 10 20:39:15 2019
$end
$version
	ModelSim Version 10.1d
$end
$timescale
	1ps
$end
$scope module img_prewitt_tb $end
$var wire 1 ! rstn $end
$var wire 1 " clk $end
$var wire 1 # valid $end
$var wire 1 $ pix [33] $end
$var wire 1 % pix [32] $end
$var wire 1 & pix [31] $end
$var wire 1 ' pix [30] $end
$var wire 1 ( pix [29] $end
$var wire 1 ) pix [28] $end
$var wire 1 * pix [27] $end
$var wire 1 + pix [26] $end
$var wire 1 , pix [25] $end
$var wire 1 - pix [24] $end
$var wire 1 . pix [23] $end
$var wire 1 / pix [22] $end
$var wire 1 0 pix [21] $end
$var wire 1 1 pix [20] $end
$var wire 1 2 pix [19] $end
$var wire 1 3 pix [18] $end
$var wire 1 4 pix [17] $end
$var wire 1 5 pix [16] $end
$var wire 1 6 pix [15] $end
$var wire 1 7 pix [14] $end
$var wire 1 8 pix [13] $end
$var wire 1 9 pix [12] $end
$var wire 1 : pix [11] $end
$var wire 1 ; pix [10] $end
$var wire 1 < pix [9] $end
$var wire 1 = pix [8] $end
$var wire 1 > pix [7] $end
$var wire 1 ? pix [6] $end
$var wire 1 @ pix [5] $end
$var wire 1 A pix [4] $end
$var wire 1 B pix [3] $end
$var wire 1 C pix [2] $end
$var wire 1 D pix [1] $end
$var wire 1 E pix [0] $end
$var wire 1 F valid_o $end
$var wire 1 G pix_o [33] $end
$var wire 1 H pix_o [32] $end
$var wire 1 I pix_o [31] $end
$var wire 1 J pix_o [30] $end
$var wire 1 K pix_o [29] $end
$var wire 1 L pix_o [28] $end
$var wire 1 M pix_o [27] $end
$var wire 1 N pix_o [26] $end
$var wire 1 O pix_o [25] $end
$var wire 1 P pix_o [24] $end
$var wire 1 Q pix_o [23] $end
$var wire 1 R pix_o [22] $end
$var wire 1 S pix_o [21] $end
$var wire 1 T pix_o [20] $end
$var wire 1 U pix_o [19] $end
$var wire 1 V pix_o [18] $end
$var wire 1 W pix_o [17] $end
$var wire 1 X pix_o [16] $end
$var wire 1 Y pix_o [15] $end
$var wire 1 Z pix_o [14] $end
$var wire 1 [ pix_o [13] $end
$var wire 1 \ pix_o [12] $end
$var wire 1 ] pix_o [11] $end
$var wire 1 ^ pix_o [10] $end
$var wire 1 _ pix_o [9] $end
$var wire 1 ` pix_o [8] $end
$var wire 1 a pix_o [7] $end
$var wire 1 b pix_o [6] $end
$var wire 1 c pix_o [5] $end
$var wire 1 d pix_o [4] $end
$var wire 1 e pix_o [3] $end
$var wire 1 f pix_o [2] $end
$var wire 1 g pix_o [1] $end
$var wire 1 h pix_o [0] $end
$upscope $end
$enddefinitions $end
#0
$dumpvars
0!
1"
x#
xF
0$
0%
0&
0'
0(
0)
0*
0+
0,
0-
0.
0/
00
01
02
03
04
05
06
07
08
09
0:
0;
0<
0=
0>
0?
0@
0A
0B
0C
0D
0E
xG
xH
xI
xJ
xK
xL
xM
xN
xO
xP
xQ
xR
xS
xT
xU
xV
xW
xX
xY
xZ
x[
x\
x]
x^
x_
x`
xa
xb
xc
xd
xe
xf
xg
xh
$end
#5
1!
0"
1/
1-
1,
1+
1(
1#
#10
1"
0h
0g
0f
0e
0d
0c
0b
0a
0`
0_
0^
0]
0\
0[
0Z
0Y
0X
0W
0V
0U
0T
0S
0R
0Q
0P
0O
0N
0M
0L
0K
0J
0I
0H
0G
0F
#15
0"
0/
1.
0-
0,
0+
1*
#20
1"
#25
0"
1/
0.
1-
1,
1+
0*
#30
1"
#35
0"
#40
1"
#45
0"
0,
0+
1*
#50
1"
#55
0"
1,
1+
0*
#60
1"
#65
0"
1.
0-
#70
1"
#75
0"
0.
1-
#80
1"
#85
0"
#90
1"
#95
0"
0/
#100
1"
#105
0"
1/
#110
1"
#115
0"
0/
#120
1"
#125
0"
1.
0,
#130
1"
#135
0"
0.
0-
1,
#140
1"
#145
0"
1/
1-
#150
1"
#155
0"
#160
1"
#165
0"
0,
0+
1*
#170
1"
#175
0"
#180
1"
#185
0"
1,
#190
1"
#195
0"
0/
#200
1"
#205
0"
1/
#210
1"
#215
0"
0,
#220
1"
#225
0"
1,
#230
1"
#235
0"
0,
#240
1"
#245
0"
0/
0-
1+
0*
#250
1"
#255
0"
1.
#260
1"
#265
0"
1-
1,
1*
1)
0(
#270
1"
#275
0"
0,
0+
#280
1"
#285
0"
1/
1+
0*
#290
1"
#295
0"
0/
0.
0-
0+
1*
#300
1"
#305
0"
#310
1"
#315
0"
1/
1-
1,
#320
1"
#325
0"
1.
0,
#330
1"
#335
0"
0.
1,
#340
1"
#345
0"
0,
#350
1"
#355
0"
1,
#360
1"
#365
0"
#370
1"
#375
0"
0,
#380
1"
#385
0"
1,
#390
1"
#395
0"
#400
1"
#405
0"
#410
1"
#415
0"
0,
#420
1"
#425
0"
1,
#430
1"
#435
0"
#440
1"
#445
0"
#450
1"
#455
0"
0,
1+
#460
1"
#465
0"
1,
0+
#470
1"
#475
0"
0,
1+
#480
1"
#485
0"
#490
1"
#495
0"
0-
1,
#500
1"
#505
0"
0/
1.
1-
0,
#510
1"
#515
0"
1,
#520
1"
#525
0"
0-
0,
0+
0*
0)
1(
#530
1"
#535
0"
1-
1,
1+
1*
1)
0(
#540
1"
#545
0"
#550
1"
#555
0"
0-
0,
0+
0*
0)
1(
#560
1"
#565
0"
1-
1,
1+
1*
1)
0(
#570
1"
#575
0"
1/
0.
0,
0+
0*
0)
1(
#580
1"
#585
0"
0/
1.
0-
#590
1"
#595
0"
1/
0.
1-
#600
1"
#605
0"
#610
1"
#615
0"
0/
1.
1,
1+
1*
1)
0(
#620
1"
#625
0"
0.
0-
0,
0+
0*
0)
1(
#630
1"
#635
0"
1.
#640
1"
#645
0"
1/
1-
#650
1"
#655
0"
0/
1,
1+
1*
1)
0(
#660
1"
#665
0"
0-
0,
0+
0*
0)
1(
#670
1"
#675
0"
1/
0.
1-
#680
1"
#685
0"
#690
1"
#695
0"
1.
#700
1"
#705
0"
0/
0-
#710
1"
#715
0"
1/
1,
#720
1"
#725
0"
0/
0.
0,
#730
1"
#735
0"
1/
1.
1-
#740
1"
#745
0"
0.
#750
1"
#755
0"
1.
#760
1"
#765
0"
0.
#770
1"
#775
0"
#780
1"
#785
0"
0/
1.
0-
#790
1"
#795
0"
1/
0.
1-
#800
1"
#805
0"
#810
1"
#815
0"
0/
1.
0-
#820
1"
#825
0"
1/
0.
1-
#830
1"
#835
0"
#840
1"
#845
0"
1.
#850
1"
#855
0"
0-
1,
#860
1"
#865
0"
0.
1-
0,
#870
1"
#875
0"
1.
0-
1,
#880
1"
#885
0"
0.
1-
0,
#890
1"
#895
0"
1.
0-
1,
#900
1"
#905
0"
0.
1-
0,
#910
1"
#915
0"
#920
1"
#925
0"
0/
1.
0-
#930
1"
#935
0"
0.
#940
1"
#945
0"
1/
1.
1-
#950
1"
#955
0"
0/
0-
#960
1"
#965
0"
1-
1,
1+
1*
1)
0(
#970
1"
#975
0"
1/
0.
0,
0+
0*
0)
1(
#980
1"
#985
0"
#990
1"
#995
0"
0/
1.
#1000
1"
#1005
0"
0-
#1010
1"
#1015
0"
1-
#1020
1"
#1025
0"
0-
#1030
1"
#1035
0"
1/
1-
#1040
1"
#1045
0"
0.
#1050
1"
#1055
0"
0/
1.
0-
#1060
1"
#1065
0"
1/
0.
1-
#1070
1"
#1075
0"
1.
#1080
1"
#1085
0"
0/
1,
1+
1*
1)
0(
#1090
1"
#1095
0"
1/
0.
0,
0+
0*
0)
1(
#1100
1"
#1105
0"
0-
1,
#1110
1"
#1115
0"
1-
0,
#1120
1"
#1125
0"
0/
1.
1,
1+
1*
1)
0(
#1130
1"
#1135
0"
1/
0.
0,
0+
0*
0)
1(
#1140
1"
#1145
0"
0/
0-
#1150
1"
#1155
0"
1/
1-
#1160
1"
#1165
0"
0/
1.
1,
1+
1*
1)
0(
#1170
1"
#1175
0"
1/
0.
0,
0+
0*
0)
1(
#1180
1"
#1185
0"
0/
1.
1,
1+
1*
1)
0(
#1190
1"
#1195
0"
1/
0.
0,
0+
0*
0)
1(
#1200
1"
#1205
0"
#1210
1"
#1215
0"
0/
1.
1,
1+
1*
1)
0(
#1220
1"
#1225
0"
1/
0.
0,
0+
0*
0)
1(
#1230
1"
#1235
0"
0/
1.
1,
1+
1*
1)
0(
#1240
1"
#1245
0"
0.
0-
0,
0+
0*
0)
1(
#1250
1"
#1255
0"
1.
1-
1,
1+
1*
1)
0(
#1260
1"
#1265
0"
1/
0.
0,
0+
0*
0)
1(
#1270
1"
#1275
0"
0/
0-
#1280
1"
#1285
0"
#1290
1"
#1295
0"
1.
1-
1,
1+
1*
1)
0(
#1300
1"
#1305
0"
0.
0-
0,
0+
0*
0)
1(
#1310
1"
#1315
0"
#1320
1"
#1325
0"
1/
1-
1+
1*
1)
0(
#1330
1"
#1335
0"
1.
#1340
1"
#1345
0"
0.
#1350
1"
#1355
0"
1.
0-
1,
0+
#1360
1"
#1365
0"
0.
1-
#1370
1"
#1375
0"
0,
#1380
1"
#1385
0"
0/
1+
#1390
1"
#1395
0"
1.
1,
#1400
1"
#1405
0"
0.
0-
0,
0*
0)
1(
#1410
1"
#1415
0"
1/
1,
0+
#1420
1"
#1425
0"
0/
1+
#1430
1"
#1435
0"
#1440
1"
#1445
0"
1/
1-
#1450
1"
#1455
0"
0/
1.
#1460
1"
#1465
0"
#1470
1"
#1475
0"
1/
0.
#1480
1"
#1485
0"
0/
0-
#1490
1"
#1495
0"
1/
1.
1-
0,
#1500
1"
#1505
0"
0/
0.
0-
1,
#1510
1"
#1515
0"
1.
1-
0,
#1520
1"
#1525
0"
0.
0-
1,
#1530
1"
#1535
0"
1/
1-
#1540
1"
#1545
0"
#1550
1"
#1555
0"
#1560
1"
#1565
0"
#1570
1"
#1575
0"
0/
#1580
1"
#1585
0"
0-
#1590
1"
#1595
0"
1-
#1600
1"
#1605
0"
0-
#1610
1"
#1615
0"
1-
#1620
1"
#1625
0"
0-
0,
#1630
1"
#1635
0"
1/
1-
1,
#1640
1"
#1645
0"
0/
0-
0,
#1650
1"
#1655
0"
1-
1,
#1660
1"
#1665
0"
#1670
1"
#1675
0"
1/
#1680
1"
#1685
0"
#1690
1"
#1695
0"
0/
1.
#1700
1"
#1705
0"
1/
0.
#1710
1"
#1715
0"
0/
#1720
1"
#1725
0"
1.
0,
#1730
1"
#1735
0"
0-
1*
#1740
1"
#1745
0"
1/
0.
1-
1,
0+
0*
1)
#1750
1"
#1755
0"
1.
#1760
1"
#1765
0"
0.
0,
1+
#1770
1"
#1775
0"
0/
1.
1,
#1780
1"
#1785
0"
1/
0.
0,
#1790
1"
#1795
0"
#1800
1"
#1805
0"
0+
#1810
1"
#1815
0"
0/
1.
1+
0)
#1820
1"
#1825
0"
1/
0.
0+
1*
1)
0(
#1830
1"
#1835
0"
#1840
1"
#1845
0"
1,
#1850
1"
#1855
0"
1.
0-
#1860
1"
#1865
0"
0/
1-
0,
1+
#1870
1"
#1875
0"
1/
0.
#1880
1"
#1885
0"
0/
0-
0+
0*
0)
1(
#1890
1"
#1895
0"
1-
1,
1+
1*
1)
0(
#1900
1"
#1905
0"
1/
0,
#1910
1"
#1915
0"
0/
1.
1,
#1920
1"
#1925
0"
0,
#1930
1"
#1935
0"
0.
0-
0+
0*
0)
1(
#1940
1"
#1945
0"
1.
1-
1+
1*
1)
0(
#1950
1"
#1955
0"
1/
0.
#1960
1"
#1965
0"
0/
1.
1,
#1970
1"
#1975
0"
1/
0.
0,
#1980
1"
#1985
0"
0/
1,
#1990
1"
#1995
0"
1.
0,
#2000
1"
#2005
0"
1,
#2010
1"
#2015
0"
#2020
1"
#2025
0"
0,
#2030
1"
#2035
0"
0.
0-
0+
0*
0)
1(
#2040
1"
#2045
0"
1.
1-
1,
1+
1*
1)
0(
#2050
1"
#2055
0"
1/
0.
0,
#2060
1"
#2065
0"
0/
1.
1,
#2070
1"
#2075
0"
0,
#2080
1"
#2085
0"
0.
0-
0+
0*
0)
1(
#2090
1"
#2095
0"
1.
1-
1,
1+
1*
1)
0(
#2100
1"
#2105
0"
0,
#2110
1"
#2115
0"
1,
#2120
1"
#2125
0"
0,
#2130
1"
#2135
0"
1/
0.
#2140
1"
#2145
0"
#2150
1"
#2155
0"
#2160
1"
#2165
0"
0+
0*
0)
1(
#2170
1"
#2175
0"
0/
1.
0-
1*
#2180
1"
#2185
0"
1/
0.
1-
1,
#2190
1"
#2195
0"
0/
0-
0,
1+
0*
#2200
1"
#2205
0"
1.
0+
1*
#2210
1"
#2215
0"
1/
0.
1-
1,
1+
0*
#2220
1"
#2225
0"
#2230
1"
#2235
0"
0/
1.
0-
0,
0+
1*
#2240
1"
#2245
0"
1/
0.
1-
1,
1+
0*
#2250
1"
#2255
0"
#2260
1"
#2265
0"
#2270
1"
#2275
0"
#2280
1"
#2285
0"
#2290
1"
#2295
0"
#2300
1"
#2305
0"
#2310
1"
#2315
0"
#2320
1"
#2325
0"
0/
0-
#2330
1"
#2335
0"
1/
1-
#2340
1"
#2345
0"
#2350
1"
#2355
0"
#2360
1"
#2365
0"
0,
0+
1*
#2370
1"
#2375
0"
0/
1.
0-
#2380
1"
#2385
0"
1/
0.
1-
#2390
1"
#2395
0"
1,
#2400
1"
#2405
0"
#2410
1"
#2415
0"
0,
#2420
1"
#2425
0"
0/
1,
#2430
1"
#2435
0"
1/
1+
0*
#2440
1"
#2445
0"
0/
0-
#2450
1"
#2455
0"
1.
0,
#2460
1"
#2465
0"
1/
0.
1-
1*
1)
0(
#2470
1"
#2475
0"
0/
1.
0+
#2480
1"
#2485
0"
#2490
1"
#2495
0"
1/
0.
0-
1+
0*
#2500
1"
#2505
0"
0/
1.
1-
0+
1*
#2510
1"
#2515
0"
1/
#2520
1"
#2525
0"
0.
#2530
1"
#2535
0"
0/
1.
#2540
1"
#2545
0"
1/
0.
1,
#2550
1"
#2555
0"
#2560
1"
#2565
0"
#2570
1"
#2575
0"
0,
#2580
1"
#2585
0"
1,
#2590
1"
#2595
0"
0,
#2600
1"
#2605
0"
1,
#2610
1"
#2615
0"
#2620
1"
#2625
0"
0,
#2630
1"
#2635
0"
1,
#2640
1"
#2645
0"
#2650
1"
#2655
0"
0/
0,
1+
#2660
1"
#2665
0"
1/
#2670
1"
#2675
0"
#2680
1"
#2685
0"
0/
#2690
1"
#2695
0"
1/
#2700
1"
#2705
0"
0/
1.
1,
#2710
1"
#2715
0"
1/
0.
0-
#2720
1"
#2725
0"
0/
1.
1-
#2730
1"
#2735
0"
1/
0.
0-
#2740
1"
#2745
0"
1-
0,
0+
0*
0)
1(
#2750
1"
#2755
0"
0/
1.
0-
#2760
1"
#2765
0"
1-
#2770
1"
#2775
0"
0.
0-
#2780
1"
#2785
0"
1/
1-
#2790
1"
#2795
0"
#2800
1"
#2805
0"
0/
1.
0-
#2810
1"
#2815
0"
#2820
1"
#2825
0"
0.
#2830
1"
#2835
0"
1.
1-
1,
1+
1*
1)
0(
#2840
1"
#2845
0"
0-
0,
0+
0*
0)
1(
#2850
1"
#2855
0"
1/
0.
1-
#2860
1"
#2865
0"
0/
1.
1,
1+
1*
1)
0(
#2870
1"
#2875
0"
1/
0,
0+
0*
0)
1(
#2880
1"
#2885
0"
0.
#2890
1"
#2895
0"
0/
1.
1,
1+
1*
1)
0(
#2900
1"
#2905
0"
1/
0.
0,
0+
0*
0)
1(
#2910
1"
#2915
0"
#2920
1"
#2925
0"
1.
#2930
1"
#2935
0"
0/
0.
0-
#2940
1"
#2945
0"
1/
1-
#2950
1"
#2955
0"
#2960
1"
#2965
0"
#2970
1"
#2975
0"
1.
#2980
1"
#2985
0"
0/
0-
#2990
1"
#2995
0"
1/
0.
1-
#3000
1"
#3005
0"
1.
0-
1,
#3010
1"
#3015
0"
0.
1-
0,
#3020
1"
#3025
0"
0/
1.
0-
#3030
1"
#3035
0"
1/
0.
1-
#3040
1"
#3045
0"
#3050
1"
#3055
0"
0/
1.
0-
#3060
1"
#3065
0"
1/
0.
1-
#3070
1"
#3075
0"
#3080
1"
#3085
0"
#3090
1"
#3095
0"
#3100
1"
#3105
0"
#3110
1"
#3115
0"
#3120
1"
#3125
0"
0/
1.
0-
#3130
1"
#3135
0"
1/
0.
1-
#3140
1"
#3145
0"
0/
1.
0-
#3150
1"
#3155
0"
0.
#3160
1"
#3165
0"
1/
1-
#3170
1"
#3175
0"
#3180
1"
#3185
0"
#3190
1"
#3195
0"
0/
1.
0-
#3200
1"
#3205
0"
#3210
1"
#3215
0"
0.
#3220
1"
#3225
0"
1/
1.
1-
#3230
1"
#3235
0"
0.
#3240
1"
#3245
0"
0/
1.
0-
#3250
1"
#3255
0"
1/
1,
#3260
1"
#3265
0"
0/
0,
#3270
1"
#3275
0"
1/
0.
1-
#3280
1"
#3285
0"
0/
1.
#3290
1"
#3295
0"
1/
0.
#3300
1"
#3305
0"
0/
0-
1+
#3310
1"
#3315
0"
1.
0+
#3320
1"
#3325
0"
1-
1,
1+
1*
1)
0(
#3330
1"
#3335
0"
1/
0.
0,
0+
0*
0)
1(
#3340
1"
#3345
0"
0/
1.
0-
#3350
1"
#3355
0"
1/
0.
1-
#3360
1"
#3365
0"
0/
1.
1,
1+
1*
1)
0(
#3370
1"
#3375
0"
1/
0.
0,
0+
0*
0)
1(
#3380
1"
#3385
0"
0/
1.
1,
1+
1*
1)
0(
#3390
1"
#3395
0"
1/
0.
0,
0+
0*
0)
1(
#3400
1"
#3405
0"
0/
1.
0-
#3410
1"
#3415
0"
0.
#3420
1"
#3425
0"
1.
#3430
1"
#3435
0"
0.
#3440
1"
#3445
0"
1/
1-
#3450
1"
#3455
0"
0/
0-
#3460
1"
#3465
0"
1.
1-
1,
1+
1*
1)
0(
#3470
1"
#3475
0"
0.
0-
0,
0+
0*
0)
1(
#3480
1"
#3485
0"
1.
1-
1,
1+
1*
1)
0(
#3490
1"
#3495
0"
0.
0-
0,
0+
0*
0)
1(
#3500
1"
#3505
0"
1.
1-
1+
1*
1)
0(
#3510
1"
#3515
0"
1/
#3520
1"
#3525
0"
#3530
1"
#3535
0"
0/
1,
#3540
1"
#3545
0"
1/
0.
0,
#3550
1"
#3555
0"
1.
0-
1,
0+
#3560
1"
#3565
0"
0.
1-
#3570
1"
#3575
0"
0/
0,
#3580
1"
#3585
0"
1/
1+
#3590
1"
#3595
0"
0/
1.
#3600
1"
#3605
0"
1/
0-
1,
0+
0*
0)
1(
#3610
1"
#3615
0"
0.
#3620
1"
#3625
0"
0/
1+
#3630
1"
#3635
0"
1.
1-
0,
#3640
1"
#3645
0"
1/
0.
0+
1*
#3650
1"
#3655
0"
1,
1+
0*
#3660
1"
#3665
0"
0/
1.
#3670
1"
#3675
0"
1/
0.
#3680
1"
#3685
0"
1.
0,
#3690
1"
#3695
0"
0/
0.
0-
1,
#3700
1"
#3705
0"
1/
1.
1-
0,
#3710
1"
#3715
0"
0.
1,
#3720
1"
#3725
0"
0/
0-
#3730
1"
#3735
0"
1/
1-
#3740
1"
#3745
0"
0/
1.
0,
#3750
1"
#3755
0"
1/
0.
1,
#3760
1"
#3765
0"
#3770
1"
#3775
0"
1.
0,
#3780
1"
#3785
0"
0.
1,
#3790
1"
#3795
0"
0/
#3800
1"
#3805
0"
0-
#3810
1"
#3815
0"
0,
#3820
1"
#3825
0"
1,
#3830
1"
#3835
0"
1-
#3840
1"
#3845
0"
#3850
1"
#3855
0"
1/
#3860
1"
#3865
0"
0/
1.
0,
#3870
1"
#3875
0"
1/
0.
1,
#3880
1"
#3885
0"
#3890
1"
#3895
0"
#3900
1"
#3905
0"
#3910
1"
#3915
0"
#3920
1"
#3925
0"
0/
#3930
1"
#3935
0"
0-
1*
#3940
1"
#3945
0"
1/
1-
0+
0*
1)
#3950
1"
#3955
0"
0,
1+
#3960
1"
#3965
0"
#3970
1"
#3975
0"
#3980
1"
#3985
0"
0/
1.
1,
#3990
1"
#3995
0"
1/
0.
0,
#4000
1"
#4005
0"
0+
#4010
1"
#4015
0"
0/
1.
1+
0)
#4020
1"
#4025
0"
1/
0-
1,
0+
1*
1)
0(
#4030
1"
#4035
0"
0/
1-
0,
#4040
1"
#4045
0"
1/
0.
#4050
1"
#4055
0"
1+
#4060
1"
#4065
0"
#4070
1"
#4075
0"
1.
#4080
1"
#4085
0"
0/
#4090
1"
#4095
0"
0.
0-
0+
0*
0)
1(
#4100
1"
#4105
0"
1/
1-
1+
1*
1)
0(
#4110
1"
#4115
0"
0/
1.
#4120
1"
#4125
0"
1/
0.
#4130
1"
#4135
0"
0/
0-
0+
0*
0)
1(
#4140
1"
#4145
0"
1.
1-
1+
1*
1)
0(
#4150
1"
#4155
0"
0.
0-
0+
0*
0)
1(
#4160
1"
#4165
0"
1/
1-
1+
1*
1)
0(
#4170
1"
#4175
0"
0/
1.
#4180
1"
#4185
0"
0.
1,
#4190
1"
#4195
0"
1.
0,
#4200
1"
#4205
0"
0.
0-
0+
0*
0)
1(
#4210
1"
#4215
0"
1/
1-
1+
1*
1)
0(
#4220
1"
#4225
0"
0/
0-
0+
0*
0)
1(
#4230
1"
#4235
0"
#4240
1"
#4245
0"
1.
1-
1+
1*
1)
0(
#4250
1"
#4255
0"
1/
0.
#4260
1"
#4265
0"
0/
0-
0+
0*
0)
1(
#4270
1"
#4275
0"
#4280
1"
#4285
0"
#4290
1"
#4295
0"
#4300
1"
#4305
0"
1.
1-
1,
1+
1*
1)
0(
#4310
1"
#4315
0"
#4320
1"
#4325
0"
0.
0-
0,
0+
0*
0)
1(
#4330
1"
#4335
0"
1/
1-
1+
1*
1)
0(
#4340
1"
#4345
0"
#4350
1"
#4355
0"
#4360
1"
#4365
0"
0/
0-
0+
0*
0)
1(
#4370
1"
#4375
0"
1.
1*
#4380
1"
#4385
0"
1/
0.
1-
1,
#4390
1"
#4395
0"
0/
0-
0,
1+
0*
#4400
1"
#4405
0"
1/
1-
0+
1*
#4410
1"
#4415
0"
1.
0-
1,
1+
0*
#4420
1"
#4425
0"
0.
1-
#4430
1"
#4435
0"
#4440
1"
#4445
0"
#4450
1"
#4455
0"
#4460
1"
#4465
0"
0/
#4470
1"
#4475
0"
1/
#4480
1"
#4485
0"
#4490
1"
#4495
0"
0/
#4500
1"
#4505
0"
1/
1.
0,
#4510
1"
#4515
0"
0/
0.
1,
#4520
1"
#4525
0"
0-
#4530
1"
#4535
0"
1/
1-
#4540
1"
#4545
0"
#4550
1"
#4555
0"
0/
0-
#4560
1"
#4565
0"
1/
1-
0,
0+
1*
#4570
1"
#4575
0"
#4580
1"
#4585
0"
#4590
1"
#4595
0"
0/
1,
#4600
1"
#4605
0"
1/
#4610
1"
#4615
0"
0/
#4620
1"
#4625
0"
1/
0,
#4630
1"
#4635
0"
1,
1+
0*
#4640
1"
#4645
0"
1.
0,
#4650
1"
#4655
0"
0-
1,
0+
#4660
1"
1h
1e
1d
1c
1`
1^
1\
1[
1Z
1W
1R
1P
1O
1F
#4665
0"
0/
1-
0,
1+
1*
1)
0(
#4670
1"
0h
1g
0e
0c
1b
1]
0\
1Y
1X
0W
1T
1Q
0O
#4675
0"
0+
#4680
1"
0g
1f
1e
0d
1a
1_
0^
0]
1\
0[
0Z
0Y
0X
1V
0P
1O
#4685
0"
1/
1+
0*
#4690
1"
0f
1d
0a
0`
1^
0\
1Z
1Y
1X
1W
0V
1U
0Q
#4695
0"
0+
1*
#4700
1"
1h
1c
0b
1`
0_
1\
1[
0Y
0X
0U
0T
1P
#4705
0"
0/
0.
1,
1+
0*
#4710
1"
0h
0e
0d
0c
0`
0^
0\
0[
0Z
0W
0P
0O
#4715
0"
0-
0,
0+
1*
#4720
1"
1h
1b
1a
1_
1[
1Z
1W
1U
1Q
#4725
0"
1.
1-
#4730
1"
0h
0b
0a
0_
0[
0Z
0W
0U
0R
#4735
0"
1/
0.
#4740
1"
1h
1e
1d
1b
1a
1_
1^
1]
1X
1W
1V
1U
1T
0Q
1O
#4745
0"
0/
1.
#4750
1"
0h
0e
0d
0b
0a
0_
0^
0]
0X
0W
0V
0U
0T
1Q
1P
0O
#4755
0"
1/
0.
1,
#4760
1"
1h
1f
1e
1b
1a
1`
1]
1\
1X
1V
1U
1S
1R
0P
1O
#4765
0"
0/
1.
0,
#4770
1"
1g
0f
0e
1d
0`
0\
1[
1Z
1W
0U
1P
0O
#4775
0"
1/
0.
1,
#4780
1"
0h
0g
1f
1e
0d
1c
0b
0a
0]
0Z
1Y
0X
0W
0V
1U
1T
0S
0R
0P
1N
#4785
0"
0/
1.
0,
#4790
1"
0f
0e
0c
0[
0Y
0U
0T
0Q
0N
#4795
0"
1/
0.
1,
#4800
1"
1g
1d
1c
1a
1_
1]
1\
1[
1Z
1Y
1S
1O
1N
#4805
0"
#4810
1"
1h
0g
1e
0d
1b
0a
1`
0_
1^
0Y
1W
1V
1U
1T
0S
1Q
#4815
0"
#4820
1"
0h
1f
0c
1a
1_
0^
0]
0[
0Z
0W
0U
1R
0N
#4825
0"
0/
1.
0,
#4830
1"
1g
1d
1c
0a
0`
0_
1^
1]
0\
1[
1Z
1Y
1X
1W
1U
0T
0R
1N
#4835
0"
#4840
1"
0e
0d
1a
1`
1\
0[
0X
0W
0V
1T
1S
1R
0Q
0O
#4845
0"
1/
0.
1,
#4850
1"
0g
1d
0a
1_
0^
0]
0\
1[
0Y
1X
1W
0U
0T
0R
#4855
0"
#4860
1"
1g
1e
0d
1]
0[
0Z
1Y
0S
1R
1O
0N
#4865
0"
0/
0,
1+
#4870
1"
1h
0f
0e
1d
1a
0`
1^
1[
0X
0W
1V
1U
1S
0R
1N
#4875
0"
1/
#4880
1"
0h
0g
0d
0a
1`
1Z
0V
1R
1Q
1P
1M
#4885
0"
#4890
1"
1h
1e
1d
0c
1a
1\
0[
0Y
1W
0R
0Q
0P
0O
#4895
0"
0/
1.
1,
#4900
1"
1f
1c
0b
0a
0^
0]
0\
1Y
1X
1V
0U
1T
0S
1Q
1P
0M
1L
#4905
0"
1/
0.
0,
#4910
1"
0e
0d
1b
1a
0`
0_
1^
1[
0Y
0W
0V
1U
1S
1R
0Q
1O
1M
#4915
0"
0/
1.
1,
#4920
1"
0h
1g
1e
1d
0a
1_
0^
1]
0[
0Z
0X
0S
0O
0M
#4925
0"
#4930
1"
1h
0f
0e
0b
1a
0_
0]
1Z
1X
1W
1S
0R
1Q
0P
1O
0L
#4935
0"
#4940
1"
0h
1f
1e
0d
0a
1`
1_
1^
1\
0X
0W
1V
0U
0S
1P
0N
#4945
0"
#4950
1"
1h
0e
1d
0c
1b
0^
1]
1Y
1W
1U
0T
1S
1R
0Q
1N
#4955
0"
0-
0,
0+
0*
0)
1(
#4960
1"
0h
0g
0f
1e
1c
1a
0`
0]
0Y
1X
0W
0U
0S
0R
0P
#4965
0"
#4970
1"
0e
0d
0a
1`
0_
1^
0Z
1W
1T
1Q
1P
0O
#4975
0"
1/
0.
1-
#4980
1"
0c
0b
0`
0^
0\
0X
0W
0V
0T
0P
1O
0N
#4985
0"
0/
1.
1,
1+
1*
1)
0(
#4990
1"
1f
1d
1c
1b
1`
1_
1[
1Z
1X
1W
1S
0Q
0O
1N
#4995
0"
#5000
1"
0f
0d
0c
0b
0`
0_
0[
0Z
0X
0W
0S
1Q
1O
0N
#5005
0"
1/
0.
0,
0+
0*
0)
1(
#5010
1"
1a
1`
1_
1^
1]
1\
1[
1Z
1Y
1X
0Q
0O
1N
#5015
0"
0/
1.
1,
1+
1*
1)
0(
#5020
1"
0a
0`
0_
0^
0]
0\
0[
0Z
0Y
0X
1Q
1P
0N
#5025
0"
0-
0,
0+
0*
0)
1(
#5030
1"
1h
1g
1f
1^
1]
1\
1[
1Z
1Y
1X
1W
0Q
0P
1O
#5035
0"
1/
0.
1-
#5040
1"
0f
1d
1b
1`
0^
0]
0[
0Z
0W
1U
1T
1S
1R
#5045
0"
0/
1.
0-
#5050
1"
0h
0g
0d
0b
0`
0\
0Y
0X
0U
0T
0S
0R
#5055
0"
1-
1,
1+
1*
1)
0(
#5060
1"
1h
1g
1f
1a
1`
1[
1W
1R
1Q
1P
#5065
0"
#5070
1"
0f
1e
1d
1c
1b
1_
1]
0[
1Z
1X
0W
1V
0R
0O
#5075
0"
1/
0.
0,
0+
0*
0)
1(
#5080
1"
0h
0e
0c
0b
1[
0Z
0V
1S
0Q
1N
#5085
0"
#5090
1"
1f
0d
1c
0_
0]
0X
1U
1Q
0P
1O
#5095
0"
1.
#5100
1"
1h
0c
1W
0U
0S
1R
1P
0N
#5105
0"
0.
#5110
1"
0h
1e
1c
1b
0a
1_
1]
0[
1Y
1X
0Q
0P
#5115
0"
1.
#5120
1"
1h
0c
0`
0_
1^
0]
1\
1Z
0Y
0X
0W
1U
1S
0R
1Q
#5125
0"
0.
#5130
1"
0h
0e
1d
1c
0b
1a
1_
0^
1]
0\
1[
1X
1W
1T
1R
0Q
1P
#5135
0"
1.
#5140
1"
1h
0g
1e
0d
0c
1b
1`
0_
1\
0[
0Z
0W
1V
0T
1Q
0P
#5145
0"
#5150
1"
1g
1c
0b
1_
0]
1Z
0X
1W
0U
1T
0Q
#5155
0"
0.
#5160
1"
0f
0e
1d
1b
0_
0Z
1Y
1X
0W
0T
1P
0O
1N
#5165
0"
1.
#5170
1"
0h
0g
0d
0c
0b
0a
0`
0\
0Y
0X
0V
0S
0R
0N
#5175
0"
0.
#5180
1"
1R
#5185
0"
0/
1.
0-
#5190
1"
0P
1N
#5195
0"
1/
0.
1-
#5200
1"
1h
1e
1b
1a
1^
1]
1Z
1Y
1X
1U
1T
0R
1Q
1P
0N
#5205
0"
0/
0-
#5210
1"
0h
1g
1f
0e
1c
1`
0^
0Z
0Y
0X
1W
0T
1S
1R
0Q
#5215
0"
1/
1.
1-
